    [{
        "State": 1,
        "ConfigType": "Apns"
    }, {
        "State": 1,
        "ConfigType": "DailyTimerCondition"
    }, {
        "State": 1,
        "ConfigType": "ServiceOperationCommand"
    }, {
        "State": 1,
        "ConfigType": "AbsoluteTimerCondition"
    }, {
        "State": 1,
        "ConfigType": "Devices"
    }, {
        "State": 1,
        "ConfigType": "ZoneDCOPropertyCommand"
    }, {
        "State": 1,
        "ConfigType": "LogicCondition"
    }, {
        "State": 1,
        "ConfigType": "UICondition"
    }, {
        "State": 1,
        "ConfigType": "RestoreDeviceState"
    }, {
        "State": 1,
        "ConfigType": "RCCondition"
    }, {
        "State": 1,
        "ConfigType": "LogCommand"
    }, {
        "State": 1,
        "ConfigType": "Rule"
    }, {
        "State": 1,
        "ConfigType": "DCOOperationCommand"
    }, {
        "State": 1,
        "ConfigType": "IntervalTimerCondition"
    }, {
        "State": 1,
        "ConfigType": "StatusCondition"
    }, {
        "State": 1,
        "ConfigType": "DispatchNotificationCommand"
    }, {
        "State": 1,
        "ConfigType": "DCOPropertyGetCommand"
    }, {
        "State": 1,
        "ConfigType": "ConfigurationAdmin"
    }, {
        "State": 1,
        "ConfigType": "ServiceConfigurationStore"
    }, {
        "State": 1,
        "ConfigType": "SceneCommand"
    }, {
        "State": 1,
        "ConfigType": "ServicePropertyCommand"
    }, {
        "State": 1,
        "ConfigType": "StoreDeviceState"
    }, {
        "State": 1,
        "ConfigType": "ShowService"
    }, {
        "State": 1,
        "ConfigType": "NthDayTimerCondition"
    }, {
        "State": 1,
        "ConfigType": "ZoneDCOOperationCommand"
    }, {
        "State": 1,
        "ConfigType": "AstroTimerCondition"
    }, {
        "State": 1,
        "ConfigType": "DCOPropertyCondition"
    }, {
        "State": 1,
        "ConfigType": "DCOPropertyCommand"
    }, {
        "State": 1,
        "ConfigType": "SendNotificationCommand"
    }]