{
    "id": -1741355730,
    "result": ["EventCondition", "UICondition", "RCCondition", "DCOPropertyCondition", "DailyPeriodCondition", "AbsoluteTimerCondition", "StatusCondition", "FilterHDPropertyCondition", "HDPropertyCondition", "FilterDCOPropertyCondition", "DailyTimerCondition", "IntervalTimerCondition", "LogicCondition", "NthDayTimerCondition", "AstroTimerCondition"],
    "jsonrpc": "2.0"
}
